<?xml version="1.0" encoding="UTF-8"?>
<svg class="story__mobile-img js-part1-mobile" width="246px" height="456px" viewBox="0 0 246 456" version="1.1" xmlns="http://www.w3.org/2000/svg" xmlns:xlink="http://www.w3.org/1999/xlink">
    <!-- Generator: Sketch 59.1 (86144) - https://sketch.com -->
    <title>Group 40</title>
    <desc>Created with Sketch.</desc>
    <style>
        text {
            font-family: 'Noto Sans TC', sans-serif;
        }
    </style>
    <defs>
        <filter x="-15.6%" y="-7.9%" width="131.2%" height="115.7%" filterUnits="objectBoundingBox" id="filter-1">
            <feGaussianBlur stdDeviation="10.5633" in="SourceGraphic"></feGaussianBlur>
        </filter>
        <linearGradient x1="3.8625%" y1="55.2405067%" x2="133.589063%" y2="40.0201541%" id="linearGradient-2">
            <stop stop-color="#05BDFF" offset="0%"></stop>
            <stop stop-color="#37FF96" offset="100%"></stop>
        </linearGradient>
        <ellipse id="path-3" cx="21.6489869" cy="7.3895085" rx="6.32259892" ry="6.08547759"></ellipse>
        <filter x="-27.7%" y="-20.5%" width="155.4%" height="157.5%" filterUnits="objectBoundingBox" id="filter-4">
            <feOffset dx="0" dy="1" in="SourceAlpha" result="shadowOffsetOuter1"></feOffset>
            <feGaussianBlur stdDeviation="1" in="shadowOffsetOuter1" result="shadowBlurOuter1"></feGaussianBlur>
            <feColorMatrix values="0 0 0 0 0   0 0 0 0 0   0 0 0 0 0  0 0 0 0.170836976 0" type="matrix" in="shadowBlurOuter1"></feColorMatrix>
        </filter>
        <linearGradient x1="127.543713%" y1="36.7523906%" x2="14.0531994%" y2="59.68%" id="linearGradient-5">
            <stop stop-color="#28EBB5" offset="0%"></stop>
            <stop stop-color="#05BDFF" offset="100%"></stop>
        </linearGradient>
    </defs>
    <g id="Page-1" stroke="none" stroke-width="1" fill="none" fill-rule="evenodd">
        <g id="Android-Copy-2" transform="translate(0.000000, -3502.000000)">
            <g id="Group-31" transform="translate(8.000000, 3233.000000)">
                <g id="Group-40" transform="translate(8.000000, 295.000000)">
                    <g id="Group-115">
                        <g id="Group-39" fill="#000000" opacity="0.0924014137">
                            <rect id="Rectangle" filter="url(#filter-1)" x="0.736025" y="0.1428" width="203.409" height="403.2"></rect>
                        </g>
                        <g id="Group-7" transform="translate(0.801500, 2.761800)">
                            <g id="Group-6">
                                <g id="Group-5">
                                    <path d="M0,28.809 L194.9409,28.809 L194.9409,367.7949 C194.9409,376.811004 187.631904,384.12 178.6158,384.12 L16.3251,384.12 C7.30899623,384.12 8.20958162e-15,376.811004 0,367.7949 L0,28.809 L0,28.809 Z" id="Rectangle" fill="#FAFAFA"></path>
                                    <path d="M16.51716,0 L178.80786,0 C187.823964,-1.65623139e-15 195.13296,7.30899623 195.13296,16.3251 L195.13296,71.15823 L195.13296,71.15823 L0.19206,71.15823 L0.19206,16.3251 C0.19206,7.30899623 7.50105623,1.65623139e-15 16.51716,0 Z" id="Rectangle" fill="#FFFFFF"></path>
                                    <text id="Save" fill="#04BAFB" font-family="" font-size="7.663194" font-weight="400" letter-spacing="0.042573319">
                                        <tspan x="168.751078" y="37.463292">Save</tspan>
                                    </text>
                                    <text id="Janet" opacity="0.649999976" font-family="" font-size="8" font-weight="normal" line-spacing="18.063243" letter-spacing="0.044444473" fill="#000000" style="transform: translate(0px, 4px);">
                                        <tspan x="9.1985" y="52.2382">Janet</tspan>
                                    </text>
                                    <text id="Adaptive-Intelligenc" font-family="" font-size="9.852678" font-weight="400" letter-spacing="0.0547371302" fill="#000000">
                                        <tspan x="8.757936" y="38.915921">Adaptive Intelligence</tspan>
                                    </text>
                                    <rect id="Rectangle-Copy-8" stroke="url(#linearGradient-2)" stroke-width="0.547371" fill="#FFFFFF" x="9.0316215" y="88.9477875" width="176.800833" height="59.116068" rx="6.568452"></rect>
                                    <g id="Group-8-Copy" transform="translate(21.347469, 109.474200)" fill="#000000" line-spacing="18.063243">
                                        <text id="Living-AC" font-family="" font-size="7.663194" font-weight="normal" letter-spacing="0.0425733391">
                                            <tspan x="0" y="9">Living AC</tspan>
                                        </text>
                                        <text id="Living-Room" font-family="NotoSansTC-Light, Noto Sans TC" font-size="6.568452" font-weight="300" letter-spacing="0.0364914235">
                                            <tspan x="0" y="21.684275">Living Room</tspan>
                                        </text>
                                    </g>
                                    <g id="Group-3-Copy" transform="translate(146.148057, 98.526780)">
                                        <g id="Group-8">
                                            <rect id="Rectangle" fill="#04BAFB" x="0" y="0" width="29.558034" height="14.779017" rx="7.3895085"></rect>
                                            <g id="Oval">
                                                <use fill="black" fill-opacity="1" filter="url(#filter-4)" xlink:href="#path-3"></use>
                                                <use fill="#FFFFFF" fill-rule="evenodd" xlink:href="#path-3"></use>
                                            </g>
                                            <text id="AI" opacity="0.900000036" fill-rule="nonzero" font-family="NotoSansTC-Bold, Noto Sans TC" font-size="5.4" font-weight="bold" fill="#04BAFB">
                                                <tspan x="19.5607989" y="8.97543398">AI</tspan>
                                            </text>
                                        </g>
                                    </g>
                                    <g id="Group-2-Copy" transform="translate(21.347469, 95.789925)">
                                        <path d="M13.136904,0 C13.4392087,-1.12953435e-15 13.684275,0.245066344 13.684275,0.547371 L13.684275,4.8716019 C13.684275,5.17390656 13.4392087,5.4189729 13.136904,5.4189729 L13.032,5.418 L13.0326429,5.8021326 C13.0326429,5.92305446 12.9346163,6.021081 12.8136945,6.021081 L0.870580543,6.021081 C0.749658681,6.021081 0.651632143,5.92305446 0.651632143,5.8021326 L0.651,5.418 L0.547371,5.4189729 C0.245066344,5.4189729 3.70216429e-17,5.17390656 0,4.8716019 L0,0.547371 C-3.70216429e-17,0.245066344 0.245066344,5.55324644e-17 0.547371,0 L13.136904,0 Z" id="Combined-Shape" fill="url(#linearGradient-5)"></path>
                                        <line x1="4.014054" y1="7.98249375" x2="2.554398" y2="11.091465" id="Line-3" stroke="#CADCFD" stroke-width="0.6568452" stroke-linecap="square"></line>
                                        <line x1="11.129877" y1="7.98249375" x2="9.670221" y2="11.091465" id="Line-3-Copy" stroke="#CADCFD" stroke-width="0.6568452" stroke-linecap="square" transform="translate(10.400049, 9.578993) scale(-1, 1) translate(-10.400049, -9.578993) "></line>
                                        <line x1="6.8421375" y1="7.98249375" x2="6.8421375" y2="11.091465" id="Line" stroke="#CADCFD" stroke-width="0.6568452" stroke-linecap="square"></line>
                                        <rect id="Rectangle" fill="#FFFFFF" x="1.094742" y="3.284226" width="11.494791" height="1.642113" rx="0.547371"></rect>
                                    </g>
                                    <g id="Group-8" transform="translate(8.757936, 162.569187)">
                                        <path d="M6.568452,0.2736855 C3.09194846,0.2736855 0.2736855,3.09194846 0.2736855,6.568452 L0.2736855,37.768599 C0.2736855,41.2451025 3.09194846,44.0633655 6.568452,44.0633655 L172.969236,44.0633655 C176.44574,44.0633655 179.264003,41.2451025 179.264003,37.768599 L179.264003,6.568452 C179.264003,3.09194846 176.44574,0.2736855 172.969236,0.2736855 L6.568452,0.2736855 Z" id="Rectangle-Copy-7" stroke="#F1F1F1" stroke-width="0.547371" fill="#FFFFFF"></path>
                                        <g id="Group" transform="translate(26.821179, 8.757936)" fill="#000000">
                                            <text id="Normal" font-family="" font-size="8.757936" font-weight="400" letter-spacing="0.164211313">
                                                <tspan x="0" y="23.136904">Normal</tspan>
                                            </text>
                                            <text id="Mode" font-family="NotoSansTC-Light, Noto Sans TC" font-size="7.663194" font-weight="300" letter-spacing="0.143684891">
                                                <tspan x="0" y="9">Mode</tspan>
                                            </text>
                                        </g>
                                        <path d="M162.480298,26.1297138 C162.4279,26.1821117 162.362402,26.2083106 162.290355,26.2083106 C162.218308,26.2083106 162.152811,26.1821117 162.100413,26.1297138 C161.995617,26.0249179 161.995617,25.8546247 162.100413,25.7498289 L165.440779,22.4094623 L162.100413,19.0690957 C161.995617,18.9642999 161.995617,18.7940067 162.100413,18.6892109 C162.205209,18.584415 162.375502,18.584415 162.480298,18.6892109 L166.010607,22.2195199 C166.115403,22.3243157 166.115403,22.4946089 166.010607,22.5994047 L162.480298,26.1297138 L162.480298,26.1297138 Z" id="Path-Copy" stroke="#1E1E1E" stroke-width="0.5" fill="#1E1E1E"></path>
                                    </g>
                                    <g id="Group-8-Copy-2" transform="translate(8.757936, 215.664174)">
                                        <path d="M6.568452,0.2736855 C3.09194846,0.2736855 0.2736855,3.09194846 0.2736855,6.568452 L0.2736855,37.768599 C0.2736855,41.2451025 3.09194846,44.0633655 6.568452,44.0633655 L172.969236,44.0633655 C176.44574,44.0633655 179.264003,41.2451025 179.264003,37.768599 L179.264003,6.568452 C179.264003,3.09194846 176.44574,0.2736855 172.969236,0.2736855 L6.568452,0.2736855 Z" id="Rectangle-Copy-7" stroke="#F1F1F1" stroke-width="0.547371" fill="#FFFFFF"></path>
                                        <g id="Group" transform="translate(26.821179, 8.757936)" fill="#000000">
                                            <text id="Exercise" font-family="" font-size="8.757936" font-weight="400" letter-spacing="0.164211313">
                                                <tspan x="0" y="23.136904">Exercise</tspan>
                                            </text>
                                            <text id="Activity" font-family="NotoSansTC-Light, Noto Sans TC" font-size="7.663194" font-weight="300" letter-spacing="0.143684891">
                                                <tspan x="0" y="9">Activity</tspan>
                                            </text>
                                        </g>
                                        <path d="M17.1358081,11.2601952 C17.292881,11.2601952 17.434243,11.3227511 17.5441833,11.4165939 L17.5441833,11.4165939 L18.6907722,12.4800446 C18.7379047,12.5269571 18.8007303,12.5269571 18.847845,12.4800446 L18.847845,12.4800446 L19.6645774,11.6511742 C19.868765,11.447863 20.2300076,11.447863 20.4341952,11.6511742 L20.4341952,11.6511742 L20.449906,11.6668176 C20.6540936,11.8701288 20.6540936,12.2141775 20.4498882,12.4175064 L20.4498882,12.4175064 L19.0991295,13.7624677 C18.8949597,13.9657789 18.5494102,13.9657789 18.3452226,13.7624677 L18.3452226,13.7624677 L17.6227197,13.0430657 L16.5860888,14.0752473 L17.8897328,15.3732961 C17.9211367,15.4045829 17.9368475,15.4671388 17.9368475,15.5140514 L17.9368475,15.5140514 L17.4499538,18.1257923 C17.4028391,18.3134778 17.2771879,18.4698587 17.1201151,18.5480581 C17.0258678,18.5949706 16.9316384,18.610614 16.8373911,18.610614 C16.7431439,18.610614 16.6646252,18.5949706 16.570378,18.5480581 C16.3033649,18.4229462 16.146292,18.1257923 16.2248285,17.8130127 L16.2248285,17.8130127 L16.5075524,15.9988731 L15.5651688,15.0136039 L14.4342908,16.21781 C14.4028869,16.2490791 14.3714652,16.2647225 14.3243504,16.2647225 L14.3243504,16.2647225 L12.1254198,16.2647225 C11.952654,16.2647225 11.7955811,16.1865231 11.66993,16.0770547 C11.5442789,15.9519428 11.4814533,15.7799008 11.4971641,15.6078764 C11.512875,15.2794533 11.7955989,15.0135862 12.1568415,15.0135862 L12.1568415,15.0135862 L13.6332514,15.0135862 L16.0206053,12.3549505 L15.6593627,12.3549505 L14.6384427,13.4340447 C14.5441955,13.5435131 14.4028513,13.606069 14.2457785,13.606069 C14.0887056,13.606069 13.9473614,13.5435131 13.8531142,13.4340447 C13.6646375,13.2307335 13.6803483,12.8866847 13.8845359,12.6677301 L13.8845359,12.6677301 L15.3295418,11.291482 C15.3452527,11.2758386 15.3766743,11.2601952 15.4237891,11.2601952 L15.4237891,11.2601952 Z M17.1515368,11.5886182 L15.4866502,11.5886182 L14.088759,12.9179361 C13.9945117,13.0117789 13.9945117,13.1525164 14.0730482,13.2463592 C14.1201629,13.2932717 14.1829885,13.3245585 14.245814,13.3245585 C14.3086396,13.3245585 14.3714652,13.2932717 14.4028869,13.2463592 L14.4028869,13.2463592 L15.4709394,12.1203348 C15.5023433,12.0890657 15.549458,12.0734222 15.5808797,12.0734222 L15.5808797,12.0734222 L16.3662082,12.0734222 C16.4290338,12.0734222 16.4918594,12.1047091 16.5075702,12.167265 C16.5232633,12.2298209 16.5232633,12.2923768 16.4761485,12.3392894 L16.4761485,12.3392894 L13.806035,15.3107224 C13.7746311,15.3107224 13.7432095,15.3263659 13.6960947,15.3263659 L13.6960947,15.3263659 L12.1568593,15.3263659 C11.9683826,15.3263659 11.8113098,15.4514777 11.8113098,15.6235021 C11.8113098,15.7173271 11.8427315,15.7955264 11.8898462,15.8580824 C11.9526718,15.9206383 12.0311904,15.9519251 12.1254376,15.9519251 L12.1254376,15.9519251 L14.2615249,15.9519251 L15.4552285,14.6851632 C15.4709216,14.6538941 15.5180541,14.6382507 15.5651688,14.6382507 C15.6122836,14.6382507 15.6436875,14.6538764 15.6751091,14.6851632 L15.6751091,14.6851632 L16.7902764,15.8424567 C16.8216803,15.8737258 16.8373911,15.920656 16.8373911,15.9675685 L16.8373911,15.9675685 L16.5389741,17.8755509 C16.5075524,18.0475752 16.570378,18.2039739 16.71174,18.2665298 C16.8059872,18.3134423 16.9002167,18.2978167 16.9787531,18.2665298 C17.0572717,18.2196173 17.1200973,18.141418 17.151519,18.0632186 L17.151519,18.0632186 L17.6227197,15.5453205 L16.271961,14.2003592 C16.2248462,14.1534467 16.2091354,14.1221598 16.2091354,14.0752473 C16.2091354,14.0283348 16.2248285,13.9970657 16.2562501,13.9657789 L16.2562501,13.9657789 L17.5127794,12.7146426 C17.5756049,12.6520867 17.6698522,12.6520867 17.7326778,12.7146426 L17.7326778,12.7146426 L18.565121,13.5435131 C18.6436575,13.6217124 18.7850016,13.6217124 18.8792489,13.5435131 L18.8792489,13.5435131 L20.2300076,12.1985518 C20.308544,12.1203525 20.308544,11.9795972 20.2300254,11.9014156 L20.2300254,11.9014156 L20.2143145,11.8857722 C20.1357781,11.8075728 19.9787231,11.8075728 19.9001867,11.8857722 L19.9001867,11.8857722 L19.0834365,12.7146426 C18.9263636,12.8710413 18.6593505,12.8866847 18.4865846,12.730286 L18.4865846,12.730286 L17.3400135,11.6668176 C17.2928988,11.6199051 17.2143623,11.5886182 17.1515368,11.5886182 L17.1515368,11.5886182 Z M18.7221761,9.852678 C19.2404915,9.852678 19.6645774,10.2749084 19.6645774,10.7910169 C19.6645774,11.3071254 19.2404915,11.7293735 18.7221761,11.7293735 C18.2038607,11.7293735 17.7797747,11.3071432 17.7797747,10.7910346 C17.7797747,10.2749261 18.2038607,9.852678 18.7221761,9.852678 Z M18.7221761,10.1654576 C18.3766443,10.1654576 18.0939204,10.4469682 18.0939204,10.7910169 C18.0939204,11.1350656 18.3766443,11.4165762 18.7221761,11.4165762 C19.0677078,11.4165762 19.3504318,11.1350834 19.3504318,10.7910169 C19.3504318,10.4469682 19.0677256,10.1654576 18.7221761,10.1654576 Z" id="Combined-Shape" stroke="#04BAFB" stroke-width="0.5" fill="#04BAFB" fill-rule="nonzero"></path>
                                        <path d="M162.480298,26.1297138 C162.4279,26.1821117 162.362402,26.2083106 162.290355,26.2083106 C162.218308,26.2083106 162.152811,26.1821117 162.100413,26.1297138 C161.995617,26.0249179 161.995617,25.8546247 162.100413,25.7498289 L165.440779,22.4094623 L162.100413,19.0690957 C161.995617,18.9642999 161.995617,18.7940067 162.100413,18.6892109 C162.205209,18.584415 162.375502,18.584415 162.480298,18.6892109 L166.010607,22.2195199 C166.115403,22.3243157 166.115403,22.4946089 166.010607,22.5994047 L162.480298,26.1297138 L162.480298,26.1297138 Z" id="Path-Copy" stroke="#1E1E1E" stroke-width="0.5" fill="#1E1E1E"></path>
                                    </g>
                                    <g id="Group-8-Copy-3" transform="translate(8.757936, 268.759161)">
                                        <path d="M6.568452,0 L172.969236,0 C176.596892,-1.67764179e-14 179.537688,2.94079613 179.537688,6.568452 L179.537688,37.768599 C179.537688,41.3962549 176.596892,44.337051 172.969236,44.337051 L6.568452,44.337051 C2.94079613,44.337051 -2.55098357e-15,41.3962549 0,37.768599 L0,6.568452 C-4.44259715e-16,2.94079613 2.94079613,1.55456799e-15 6.568452,0 Z" id="Rectangle-Copy-7" fill="#E2F7FF"></path>
                                        <g id="Group" transform="translate(26.821179, 8.757936)" fill="#000000">
                                            <text id="Half-Sleeves" font-family="" font-size="8.757936" font-weight="400" letter-spacing="0.164211313">
                                                <tspan x="0" y="23.136904">Half Sleeves</tspan>
                                            </text>
                                            <text id="Clothing" font-family="NotoSansTC-Light, Noto Sans TC" font-size="7.663194" font-weight="300" letter-spacing="0.143684891">
                                                <tspan x="0" y="9">Clothing</tspan>
                                            </text>
                                        </g>
                                        <path d="M162.480298,26.1297138 C162.4279,26.1821117 162.362402,26.2083106 162.290355,26.2083106 C162.218308,26.2083106 162.152811,26.1821117 162.100413,26.1297138 C161.995617,26.0249179 161.995617,25.8546247 162.100413,25.7498289 L165.440779,22.4094623 L162.100413,19.0690957 C161.995617,18.9642999 161.995617,18.7940067 162.100413,18.6892109 C162.205209,18.584415 162.375502,18.584415 162.480298,18.6892109 L166.010607,22.2195199 C166.115403,22.3243157 166.115403,22.4946089 166.010607,22.5994047 L162.480298,26.1297138 L162.480298,26.1297138 Z" id="Path-Copy" stroke="#1E1E1E" stroke-width="0.5" fill="#1E1E1E"></path>
                                    </g>
                                    <g id="Group-8-Copy-4" transform="translate(8.757936, 321.854148)">
                                        <path d="M6.568452,0.2736855 C3.09194846,0.2736855 0.2736855,3.09194846 0.2736855,6.568452 L0.2736855,37.768599 C0.2736855,41.2451025 3.09194846,44.0633655 6.568452,44.0633655 L172.969236,44.0633655 C176.44574,44.0633655 179.264003,41.2451025 179.264003,37.768599 L179.264003,6.568452 C179.264003,3.09194846 176.44574,0.2736855 172.969236,0.2736855 L6.568452,0.2736855 Z" id="Rectangle-Copy-7" stroke="#F1F1F1" stroke-width="0.547371" fill="#FFFFFF"></path>
                                        <g id="Group" transform="translate(26.821179, 8.757936)" fill="#000000">
                                            <text id="07:00-to-07:30" font-family="" font-size="8.757936" font-weight="400" letter-spacing="0.164211313">
                                                <tspan x="0" y="23.136904">07:00 to 07:30</tspan>
                                            </text>
                                            <text id="Active-Period" font-family="NotoSansTC-Light, Noto Sans TC" font-size="7.663194" font-weight="300" letter-spacing="0.143684891">
                                                <tspan x="0" y="9">Active Period</tspan>
                                            </text>
                                        </g>
                                        <path d="M162.480298,26.1297138 C162.4279,26.1821117 162.362402,26.2083106 162.290355,26.2083106 C162.218308,26.2083106 162.152811,26.1821117 162.100413,26.1297138 C161.995617,26.0249179 161.995617,25.8546247 162.100413,25.7498289 L165.440779,22.4094623 L162.100413,19.0690957 C161.995617,18.9642999 161.995617,18.7940067 162.100413,18.6892109 C162.205209,18.584415 162.375502,18.584415 162.480298,18.6892109 L166.010607,22.2195199 C166.115403,22.3243157 166.115403,22.4946089 166.010607,22.5994047 L162.480298,26.1297138 L162.480298,26.1297138 Z" id="Path-Copy" stroke="#1E1E1E" stroke-width="0.5" fill="#1E1E1E"></path>
                                    </g>
                                </g>
                                <g id="back-arro" transform="translate(8.757936, 10.400049)" fill="#0A0A0A" stroke="#FCFDFE">
                                    <g id="left-arrow-(5)">
                                        <path d="M10.3320505,3.5521063 L10.3491392,3.55570676 L3.02362573,3.55570676 L5.32649958,1.33276853 C5.43926688,1.22424052 5.50112424,1.07722193 5.50112424,0.922916702 C5.50112424,0.768611476 5.43926688,0.622621587 5.32649958,0.513836402 L4.96817191,0.168535597 C4.85549361,0.0600075879 4.70534488,0 4.54522777,0 C4.38502166,0 4.23478393,0.0595789622 4.12210563,0.168106971 L0.174538043,3.96993056 C0.0614147272,4.0788872 -0.000442632454,4.22401984 1.13686838e-13,4.37841079 C-0.000442632454,4.53365899 0.0614147272,4.67887735 0.174538043,4.78766254 L4.12210563,8.58982903 C4.23478393,8.69827131 4.38493266,8.757936 4.54522777,8.757936 C4.70534488,8.757936 4.85549361,8.69818559 4.96817191,8.58982903 L5.32649958,8.24452822 C5.43926688,8.13617166 5.50112424,7.99146765 5.50112424,7.83716243 C5.50112424,7.68294293 5.43926688,7.54586845 5.32649958,7.43742617 L2.99763674,5.20205779 L10.3402388,5.20205779 C10.6701744,5.20205779 10.94742,4.92816602 10.94742,4.61055443 L10.94742,4.12217839 C10.94742,3.8045668 10.6619861,3.5521063 10.3320505,3.5521063 Z" id="Path" stroke-width="0.547371" fill-rule="nonzero"></path>
                                    </g>
                                </g>
                            </g>
                            <path d="M21.1927959,178.500838 L21.1927959,180.63243 L19.157985,180.63243 L19.157985,178.500838 L21.1927959,178.500838 Z M27.2880216,178.500838 C27.8766446,178.500838 28.3538178,178.978011 28.3538178,179.566634 C28.3538178,180.155257 27.8766446,180.63243 27.2880216,180.63243 L27.2880216,180.63243 L21.8394481,180.63243 L21.8394481,178.500838 Z M20.1754255,179.065338 C19.9111285,179.065338 19.6968735,179.279593 19.6968735,179.54389 L19.6968735,179.54389 L19.6968735,179.589378 C19.6968735,179.853675 19.9111285,180.06793 20.1754255,180.06793 C20.4397226,180.06793 20.6539776,179.853675 20.6539776,179.589378 L20.6539776,179.589378 L20.6539776,179.54389 C20.6539776,179.279593 20.4397226,179.065338 20.1754255,179.065338 Z M27.3136332,179.065338 L22.3783366,179.065338 L22.3783366,180.06793 L27.3136332,180.06793 C27.5904914,180.06793 27.8149293,179.843492 27.8149293,179.566634 C27.8149293,179.289776 27.5904914,179.065338 27.3136332,179.065338 L27.3136332,179.065338 Z M21.1927959,175.735073 L21.1927959,177.866592 L19.157985,177.866592 L19.157985,175.735073 L21.1927959,175.735073 Z M27.2880583,175.735073 C27.876661,175.735073 28.3538178,176.21223 28.3538178,176.800833 C28.3538178,177.389436 27.876661,177.866592 27.2880583,177.866592 L27.2880583,177.866592 L21.8394481,177.866592 L21.8394481,175.735073 Z M20.6539776,176.2995 L19.6968735,176.2995 L19.6968735,177.302092 L20.6539776,177.302092 L20.6539776,176.2995 Z M27.3136332,176.2995 L22.3783366,176.2995 L22.3783366,177.302092 L27.3136332,177.302092 C27.5904914,177.302092 27.8149293,177.077654 27.8149293,176.800796 C27.8149293,176.523938 27.5904914,176.2995 27.3136332,176.2995 L27.3136332,176.2995 Z M21.1927959,172.969236 L21.1927959,175.100755 L19.157985,175.100755 L19.157985,172.969236 L21.1927959,172.969236 Z M27.2880583,172.969236 C27.876661,172.969236 28.3538178,173.446393 28.3538178,174.034995 C28.3538178,174.623598 27.876661,175.100755 27.2880583,175.100755 L27.2880583,175.100755 L21.8394481,175.100755 L21.8394481,172.969236 Z M20.6539776,173.533736 L19.6968735,173.533736 L19.6968735,174.536328 L20.6539776,174.536328 L20.6539776,173.533736 Z M27.3136332,173.533736 L22.3783366,173.533736 L22.3783366,174.536328 L27.3136332,174.536328 C27.5904914,174.536328 27.8149293,174.31189 27.8149293,174.035032 C27.8149293,173.758174 27.5904914,173.533736 27.3136332,173.533736 L27.3136332,173.533736 Z" id="Combined-Shape" fill="#04BAFB" fill-rule="nonzero"></path>
                            <path d="M26.6907957,279.706581 L25.7441295,279.706581 C25.7441295,280.234858 25.3191877,280.664498 24.7971793,280.664498 C24.2751708,280.664498 23.850513,280.234858 23.850513,279.706581 L22.9037048,279.706581 L20.252727,281.23922 L21.0102304,283.34658 L22.1463434,282.963385 L22.1463434,287.369775 L27.4482991,287.369775 L27.4482991,282.963385 L28.5844122,283.34658 L29.3416315,281.23922 L26.6907957,279.706581 Z M28.3541895,282.865161 L27.5678395,282.599963 L27.0694054,282.431749 L27.0694054,282.963403 L27.0694054,286.986454 L22.5249531,286.986454 L22.5249531,282.963403 L22.5249531,282.431749 L22.026519,282.599981 L21.240169,282.865179 L20.7177345,281.411672 L23.0042508,280.089777 L23.5266853,280.089777 C23.6896465,280.643736 24.1968145,281.047694 24.7971793,281.047694 C25.397686,281.047694 25.9047297,280.643736 26.0675312,280.089777 L26.5901077,280.089777 L28.8767482,281.411672 L28.3541895,282.865161 Z" id="Shape" stroke="#04BAFB" stroke-width="0.5" fill="#04BAFB" fill-rule="nonzero"></path>
                            <g id="time" transform="translate(20.800098, 332.254197)" fill="#04BAFB" fill-rule="nonzero" stroke="#04BAFB" stroke-width="0.5">
                                <path d="M3.831597,0 C1.71885441,0 0,1.71885441 0,3.831597 C0,5.94433959 1.71885441,7.663194 3.831597,7.663194 C5.94433959,7.663194 7.663194,5.94433959 7.663194,3.831597 C7.663194,1.71885441 5.94433959,0 3.831597,0 Z M3.831597,7.4077542 C1.85972946,7.4077542 0.2554398,5.80346454 0.2554398,3.831597 C0.2554398,1.85972946 1.85972946,0.2554398 3.831597,0.2554398 C5.80346454,0.2554398 7.4077542,1.85972946 7.4077542,3.831597 C7.4077542,5.80346454 5.80346454,7.4077542 3.831597,7.4077542 Z" id="Shape"></path>
                                <path d="M3.7348395,1.393308 C3.68142936,1.393308 3.638082,1.44121636 3.638082,1.50048554 L3.638082,3.96556892 L2.1867195,3.96556892 C2.13330936,3.96556892 2.089962,4.01347728 2.089962,4.07274646 C2.089962,4.13201564 2.13330936,4.179924 2.1867195,4.179924 L3.7348395,4.179924 C3.78824964,4.179924 3.831597,4.13201564 3.831597,4.07274646 L3.831597,1.50048554 C3.831597,1.44121636 3.78824964,1.393308 3.7348395,1.393308 Z" id="Path"></path>
                            </g>
                        </g>
                    </g>
                </g>
            </g>
        </g>
    </g>
</svg>